!!! time_stamp: Wed Nov 18 00:20:54 2015 CET
INFO:    BL1: 0xf9810000 - 0xf9817000 [size = 28672]
NOTICE:  Booting Trusted Firmware
NOTICE:  BL1: v1.1(debug):ca9f7ed
NOTICE:  BL1: Built : 14:59:59, Oct  9 2015
INFO:    BL1: RAM 0xf9810000 - 0xf9817000
NOTICE:  syspll frequency:1190494208Hz
NOTICE:  succeed to init lpddr3 rank0 dram phy
INFO:    lpddr3_freq_init, set ddrc 533mhz
INFO:    init ddr3 rank0
INFO:    ddr3 rank1 init pass
INFO:    lpddr3_freq_init, set ddrc 800mhz
INFO:    init ddr3 rank0
INFO:    ddr3 rank1 init pass
INFO:    Elpida DDR
INFO:    ddr test value:0xa5a55a5a
INFO:    Hisilicon HiKey platform is initialized
INFO:    Using FIP
INFO:    Loading file 'bl2.bin' at address 0xf9818000
INFO:    File 'bl2.bin' loaded: 0xf9818000 - 0xf9821100
NOTICE:  BL1: Booting BL2
INFO:    BL1: BL2 address = 0xf9818000
INFO:    BL1: BL2 spsr = 0x3c5
INFO:    [BDID] [fff91c18] midr: 0x410fd033
INFO:    [BDID] [fff91c1c] board type: 0
INFO:    [BDID] [fff91c20] board id: 0x2b
INFO:    init_acpu_dvfs: pmic version 17
INFO:    init_acpu_dvfs: ACPU_CHIP_MAX_FREQ=0x186a00.
INFO:    acpu_dvfs_volt_init: success!
INFO:    acpu_dvfs_set_freq: support freq num is 5
INFO:    acpu_dvfs_set_freq: start prof is 0x4
INFO:    acpu_dvfs_set_freq: magic is 0x5a5ac5c5
INFO:    acpu_dvfs_set_freq: voltage:
INFO:      - 0: 0x49
INFO:      - 1: 0x49
INFO:      - 2: 0x50
INFO:      - 3: 0x60
INFO:      - 4: 0x78
NOTICE:  acpu_dvfs_set_freq: set acpu freq success!NOTICE:  BL2: v1.1(debug):ca9f7ed
NOTICE:  BL2: Built : 15:00:00, Oct  9 2015
INFO:    BL2: Loading BL3-0
INFO:    Using FIP
INFO:    Loading file 'bl30.bin' at address 0x1000000
INFO:    Skip reserving memory: 0x1000000 - 0x1023d00
INFO:    File 'bl30.bin' loaded: 0x1000000 - 0x1023d00
INFO:    bl2_plat_handle_bl30: [1000000] 3a334d43 35313032 2f34302f 32203930
INFO:    bl2_plat_handle_bl30: [10000c8] 0 0 b 0
INFO:    bl2_plat_handle_bl30: [1000190] 17 0 0 0
INFO:    bl2_plat_handle_bl30: [1023cf0] 0 0 0 0
INFO:    hisi_mcu_load_image: mcu sections 0:
INFO:    hisi_mcu_load_image:  src  = 0x1000200
INFO:    hisi_mcu_load_image:  dst  = 0xf6000000
INFO:    hisi_mcu_load_image:  size = 31184
INFO:    hisi_mcu_load_image:  [SRC 0x1000200] 0x8000 0x3701 0x7695 0x7689
INFO:    hisi_mcu_load_image:  [DST 0xf6000000] 0x8000 0x3701 0x7695 0x7689
INFO:    hisi_mcu_load_image: mcu sections 1:
INFO:    hisi_mcu_load_image:  src  = 0x1007bd0
INFO:    hisi_mcu_load_image:  dst  = 0x5e00000
INFO:    hisi_mcu_load_image:  size = 93828
INFO:    hisi_mcu_load_image:  [SRC 0x1007bd0] 0xf000b510 0x2103fb3d 0xf0004604 0xf003fb57
INFO:    hisi_mcu_load_image:  [DST 0x5e00000] 0xf000b510 0x2103fb3d 0xf0004604 0xf003fb57
INFO:    hisi_mcu_load_image: mcu sections 2:
INFO:    hisi_mcu_load_image:  src  = 0x101ea54
INFO:    hisi_mcu_load_image:  dst  = 0x5e16e84
INFO:    hisi_mcu_load_image:  size = 15428
INFO:    hisi_mcu_load_image:  [SRC 0x101ea54] 0x9 0x1020640 0x10001 0x8f0d180
INFO:    hisi_mcu_load_image:  [DST 0x5e16e84] 0x9 0x1020640 0x10001 0x8f0d180
INFO:    hisi_mcu_load_image: mcu sections 3:
INFO:    hisi_mcu_load_image:  src  = 0x1022698
INFO:    hisi_mcu_load_image:  dst  = 0x5e22a10
INFO:    hisi_mcu_load_image:  size = 3060
INFO:    hisi_mcu_load_image:  [SRC 0x1022698] 0x0 0x0 0x0 0x0
INFO:    hisi_mcu_load_image:  [DST 0x5e22a10] 0x0 0x0 0x0 0x0
INFO:    hisi_mcu_load_image: mcu sections 4:
INFO:    hisi_mcu_load_image:  src  = 0x102328c
INFO:    hisi_mcu_load_image:  dst  = 0x5e23604
INFO:    hisi_mcu_load_image:  size = 2616
INFO:    hisi_mcu_load_image:  [SRC 0x102328c] 0xf80000a0 0x0 0xf80000ac 0x0
INFO:    hisi_mcu_load_image:  [DST 0x5e23604] 0xf80000a0 0x0 0xf80000ac 0x0
INFO:    hisi_mcu_start_run: AO_SC_SYS_CTRL2=0
INFO:    bl2_plat_handle_bl30: mcu pc is 42933301
INFO:    bl2_plat_handle_bl30: AO_SC_PERIPH_CLKSTAT4	is 39018f09
INFO:    BL2: TrustZone: protecting 16777216 bytes of memory at 0x3f000000
INFO:    BL2: Loading BL3-1
INFO:    Using FIP
INFO:    Loading file 'bl31.bin' at address 0xf9858000
INFO:    File 'bl31.bin' loaded: 0xf9858000 - 0xf9861010
INFO:    BL2: Loading BL3-2
INFO:    Using FIP
WARNING: Failed to access image 'bl32.bin' (-1)
WARNING: Failed to load BL3-2 (-1)
INFO:    BL2: Loading BL3-3
INFO:    Using FIP
INFO:    Loading file 'bl33.bin' at address 0x35000000
INFO:    File 'bl33.bin' loaded: 0x35000000 - 0x35a18080
NOTICE:  BL1: Booting BL3-1
INFO:    BL1: BL3-1 address = 0xf9858000
INFO:    BL1: BL3-1 spsr = 0x3cd
INFO:    BL1: BL3-1 params address = 0xf9821920
INFO:    BL1: BL3-1 plat params address = 0x0
NOTICE:  BL3-1: v1.1(debug):ca9f7ed
NOTICE:  BL3-1: Built : 15:00:00, Oct  9 2015
INFO:    BL3-1: Initializing runtime services
INFO:    BL3-1: Preparing for EL3 exit to normal world
INFO:    BL3-1: Next image address = 0x35000000
INFO:    BL3-1: Next image spsr = 0x3c9
INFO:    MPIDR at exit = 80000000
Booting STH ARMv8
Created Nov 18 2015 00:19:14 (DEBUG=2) #0EAF7C30
HYP RAM: 000000003500C000-0000000035018000
HYP ROM: 0000000035000000-000000003500C000
ID_AA64AFR  = (0000000000000000 0000000000000000)
ID_AA64DFR  = (0000000010305106 0000000000000000)
ID_AA64ISAR = (0000000000011120 0000000000000000)
ID_AA64MMFR = (0000000000001122 0000000000000000)
ID_AA64PFR  = (0000000000002222 0000000000000000)
ID_MMFR     = (10101105 40000000 01260000 02102211)
CCSIDR = 703FE07A, CLIDR = 0A200023, CTR = 84448004
MAIR = 0000A00441801009, TCR = 80800000, SCTLR=30C51838
MIDR_EL1=410FD033 MPIDR_EL1=0000000080000000 VMPIDR_EL2=0000000080000000
GICD=F6801000 GICC=F6802000 GICH=F6804000 GICV=F6806000
GICD CTLR=00000000 TYPER=0000FCE4 IIDR=0200143B
GICC CTLR=00000060 PMR=000000F0 IIDR=0202143B
GICH HCR=00000000 VTR=90000003 VMCR=004C0000 MISR=00000000
[C0] GIC at cpu 0:
[C0] PIRQ 0	E=1 P=0 A=0 Tg=00000001 Cfg=2 Pr=0 Typ=0
[C0] PIRQ 1	E=1 P=0 A=0 Tg=00000001 Cfg=2 Pr=0 Typ=0
[C0] PIRQ 2	E=1 P=0 A=0 Tg=00000001 Cfg=2 Pr=0 Typ=0
[C0] PIRQ 3	E=1 P=0 A=0 Tg=00000001 Cfg=2 Pr=0 Typ=0
[C0] PIRQ 4	E=1 P=0 A=0 Tg=00000001 Cfg=2 Pr=0 Typ=0
[C0] PIRQ 5	E=1 P=0 A=0 Tg=00000001 Cfg=2 Pr=0 Typ=0
[C0] PIRQ 6	E=1 P=0 A=0 Tg=00000001 Cfg=2 Pr=0 Typ=0
[C0] PIRQ 7	E=1 P=0 A=0 Tg=00000001 Cfg=2 Pr=0 Typ=0
[C0] GICC CTLR=00000060 PMR=000000F0 IIDR=0202143B max=256/160
[C0] GICD CTLR=00000060 BPR=00000003 RPR=000000FF HPPIR=000003FF
[C0] GICV CTLR=00000000 BPR=00000002 RPR=000000FF HPPIR=000003FF
[C0] GICH  HCR=00000000  VTR=90000003 VMCR=004C0000
[C0] GICH MISR=00000000 EISR=00000000 00000000
[C0] GICH  APR=00000000 ELSR=0000000F 00000000
[C0] GICH  LR0=00000000 00000000 00000000 00000000
[C0] GICH  LR4=00000000 00000000 00000000 00000000
vGIC configuration: 256 pIRQ -> 96 vIRQ 
[C0] JUNO/HiKey TEMP FIX: hardcoded payload to P=0000000035014000
[C0] PAYLOAD at 0000000035014000
[C0] Bundle S=00A04080 F=00000000 T=017031F7:
[C0] 	0: O=00000140 S=00000930 F=00000000 T=017031F7 config
[C0] 	1: O=00000A80 S=00000D3E F=00000000 T=017031F7 guest1_hikey.dtb
[C0] 	2: O=000017C0 S=00A00E00 F=00000000 T=017031F7 guest_linux_hikey.bin
[C0] 	3: O=00A025C0 S=00000DCA F=00000000 T=017031F7 guest2_hikey.dtb
[C0] 	4: O=00A033C0 S=00000CBA F=00000000 T=017031F7 guest3_hikey.dtb
[C0] Using configuration '2 x linux' dated 017031F7
[C0] Available memory [type,region current (initial) ]:
[C0] 0,0  0000000035000000-0000000036000000 (35000000-36000000)
[C0] 0,1  0000000005E00000-0000000005EFFFFF (05E00000-05EFFFFF)
[C0] 1,0  0000000036000000-0000000036200000 (36000000-36200000)
[C0] 2,0  0000000036200000-0000000036400000 (36200000-36400000)
[C0] 3,0  0000000000000000-0000000005E00000 (00000000-05E00000)
[C0] 3,1  0000000005F00000-0000000035000000 (05F00000-35000000)
[C0] allocated type=1 reg=0 size=00008000 align=00001000 PTR=0000000036000000
[C0] allocated 32768 bytes for coredata at 0000000036000000
[C0] CPU map:
[C0] 	0 -> PID=00000000 MPIDR=00000000 STATE=00000001 STACK=36000FF0
[C0] 	1 -> PID=00000001 MPIDR=00000001 STATE=00000001 STACK=36001FF0
[C0] 	2 -> PID=00000002 MPIDR=00000002 STATE=00000001 STACK=36002FF0
[C0] 	3 -> PID=00000003 MPIDR=00000003 STATE=00000001 STACK=36003FF0
[C0] 	4 -> PID=00000004 MPIDR=00000100 STATE=00000001 STACK=36004FF0
[C0] 	5 -> PID=00000005 MPIDR=00000101 STATE=00000001 STACK=36005FF0
[C0] 	6 -> PID=00000006 MPIDR=00000102 STATE=00000001 STACK=36006FF0
[C0] 	7 -> PID=00000007 MPIDR=00000103 STATE=00000001 STACK=36007FF0
[C0] allocated type=1 reg=0 size=00008000 align=00008000 PTR=0000000036008000
[C0] GUEST linux 1 at 0000000036008000
[C0] 	pcpu mask 00000007 => vcpu mask
[C0] allocated type=3 reg=1 size=08000000 align=00200000 PTR=0000000006000000
[C0] GUEST mem_start_ipadr=0000000000000000 mem_size=0000000008000000
[C0] 	mem 00000000 -> 0000000006000000-000000000E000000 
[C0] 	l0=3600A000 l1 ram=3600C000 misc=3600D000 l2 dev=3600E000 igc=3600F000
[C0] 	device 00000000C0004000 -> 00000000F8015000 (1 pages)
[C0] 	device 00000000C0100000 -> 00000000F7800000 (2 pages)
[C0] 	gic ipadr 00000000C0000000
[C0] 	device 00000000C0001000 -> 00000000F6806000 (1 pages)
[C0] 	irq map: [ 0->0 1->1 2->2 3->3 4->4 27->27 30->30 32->68 48->0 ]
[C0] 	fw 0000000006010000: ipadr=00010000:+00000D3E guest1_hikey.dtb
[C0] 	fw 0000000006080000: ipadr=00080000:+00A00E00 guest_linux_hikey.bin
[C0] allocated type=1 reg=0 size=00008000 align=00008000 PTR=0000000036010000
[C0] GUEST linux 2 at 0000000036010000
[C0] 	pcpu mask 00000038 => vcpu mask
[C0] allocated type=3 reg=1 size=08000000 align=00200000 PTR=000000000E000000
[C0] GUEST mem_start_ipadr=0000000000000000 mem_size=0000000008000000
[C0] 	mem 00000000 -> 000000000E000000-0000000016000000 
[C0] 	l0=36012000 l1 ram=36014000 misc=36015000 l2 dev=36016000 igc=36017000
[C0] 	device 00000000C0004000 -> 00000000F7112000 (1 pages)
[C0] 	device 00000000C0100000 -> 00000000F7800000 (2 pages)
[C0] 	gic ipadr 00000000C0000000
[C0] 	device 00000000C0001000 -> 00000000F6806000 (1 pages)
[C0] 	irq map: [ 0->0 1->1 2->2 3->3 4->4 27->27 30->30 32->70 48->0 49->0 ]
[C0] 	fw 000000000E010000: ipadr=00010000:+00000DCA guest2_hikey.dtb
[C0] 	fw 000000000E080000: ipadr=00080000:+00A00E00 guest_linux_hikey.bin
[C0] allocated type=1 reg=0 size=00008000 align=00008000 PTR=0000000036018000
[C0] GUEST linux 3 at 0000000036018000
[C0] 	pcpu mask 000000C0 => vcpu mask
[C0] allocated type=3 reg=1 size=08000000 align=00200000 PTR=0000000016000000
[C0] GUEST mem_start_ipadr=0000000000000000 mem_size=0000000008000000
[C0] 	mem 00000000 -> 0000000016000000-000000001E000000 
[C0] 	l0=3601A000 l1 ram=3601C000 misc=3601D000 l2 dev=3601E000 igc=3601F000
[C0] 	device 00000000C0004000 -> 00000000F7113000 (1 pages)
[C0] 	device 00000000C0100000 -> 00000000F7800000 (2 pages)
[C0] 	gic ipadr 00000000C0000000
[C0] 	device 00000000C0001000 -> 00000000F6806000 (1 pages)
[C0] 	irq map: [ 0->0 1->1 2->2 3->3 4->4 27->27 30->30 32->71 49->0 ]
[C0] 	fw 0000000016010000: ipadr=00010000:+00000CBA guest3_hikey.dtb
[C0] 	fw 0000000016080000: ipadr=00080000:+00A00E00 guest_linux_hikey.bin
[C0] IGC configuration:
[C0] allocated type=2 reg=0 size=00005000 align=00001000 PTR=0000000036200000
[C0] 	IGC channel (null) @000000003500C018
[C0] 		EP1: linux 1 ADR=C0200000:C0201000:C0205000 WSIZE=00004000 IRQ=48
[C0] 		EP2: linux 2 ADR=C0200000:C0201000:C0202000 WSIZE=00001000 IRQ=48
[C0] allocated type=2 reg=0 size=00005000 align=00001000 PTR=0000000036205000
[C0] 	IGC channel (null) @000000003500C100
[C0] 		EP1: linux 2 ADR=C0206000:C0207000:C020A000 WSIZE=00003000 IRQ=49
[C0] 		EP2: linux 3 ADR=C0200000:C0201000:C0203000 WSIZE=00002000 IRQ=49
[C0] Awakening sleeping CPU 3
[C0] psci request: 00000003 0000000035005B38 0000000036003000 -> 00000000
[C3] core boot: PCPU=0000000036003000 STACK=36003FF0
[C0] Awakening sleeping CPU 6
[C3] core boot is starting 'linux 2'....
[C6] core boot: PCPU=0000000036006000 STACK=36006FF0
[C0] psci request: 00000102 0000000035005B38 0000000036006000 -> 00000000
[C6] core boot is starting 'linux 3'....
[C3] 	Guest entry VADR=00080000 PADR=0E080000 Memory=91005A4D 140003FF
[C0] Starting local boot primary CPU
[C6] 	Guest entry VADR=00080000 PADR=16080000 Memory=91005A4D 140003FF
[C0] core boot: PCPU=0000000036000000 STACK=36000FF0
[C3] Starting guest linux 2 on CPU 3 at 00080000
[C0] core boot is starting 'linux 1'....
[C6] Starting guest linux 3 on CPU 6 at 00080000
[C3] MIDR_EL1=410FD033 MPIDR_EL1=80000003 HCR_EL2=000000008008601B
[C6] MIDR_EL1=410FD033 MPIDR_EL1=80000102 HCR_EL2=000000008008601B
[C0] 	GBest entry VADR=00080000 PADR=06080000 Memory=91005A4D 140003FF
[C0] Starting guest linux 1 on CPU 0 at 00080000
[C0] MIDR_EL1=410FD033 MPIDR_EL1=80000000 HCR_EL2=000000008008601B
ooting Linux on physical CPU 0x0
Initializing cgroup subsys cpu
Linux version 4.2.0-dirty (haspoc@builder) (gcc version 4.9.1 (Ubuntu/Linaro 4.9.1-16ubuntu6) ) #2 SMP PREEMPT Wed Nov 18 00:18:43 CET 2015
CPU: AArch64 Processor [410fd033] revision 3
Detected VIPT I-cache on CPU0
alternatives: enabling workaround for ARM erratum 845719
bootconsole [uart0] enabled
efi: Getting EFI parameters from FDT:
efi: UEFI not found.
cma: Reserved 16 MiB at 0x0000000007000000
[C3] SMC64 trap: 5E000000 at 0008BE50
[C3] 	X0: 84000000, X1: 00000000, X2: 00000000, X3: 00000000
On node 0 totalpages: 32768
  DMA zone: 512 pages used for memmap[C3] SMC64 trap: 5E000000 at 0008BE50
[C3] 	X0: 84000006, X1: 00000000, X2: 00000000, X3: 00000000

  DMA zone: 0 pages reserved
  DMA [C0] SMC64 trap: 5E000000 at 0008BE50
[C0] 	X0: 84000000, X1: 00000000, X2: 00000000, X3: 00000000
zone: 32768 pages, LIFO batch:7
psci: probing for con[C0] SMC64 trap: 5E000000 at 0008BE50
[C0] 	X0: 84000006, X1: 00000000, X2: 00000000, X3: 00000000
duit method from DT.
[C6] SMC64 trap: 5E000000 at 0008BE50
[C6] 	X0: 84000000, X1: 00000000, X2: 00000000, X3: 00000000
psci: PSCIv65535.65535 detected in firmware.
psci: Using standard PSCI v0.2 function IDs
[C6] SMC64 trap: 5E000000 at 0008BE50
[C6] 	X0: 84000006, X1: 00000000, X2: 00000000, X3: 00000000
psci: MIGRATE_INFO_TYPE not supported.
PERCPU: Embedded 15 pages/cpu @ffffffc006fd9000 s23424 r8192 d29824 u61440
pcpu-alloc: s23424 r8192 d29824 u61440 alloc=15*4096
pcpu-alloc: [0] 0 [0] 1 
Built 1 zonelists in Zone order, mobility grouping on.  Total pages: 32256
Kernel command line: earlycon console=ttyAMA0 earlyprintk debug user_debug=1 loglevel=31
PID hash table entries: 512 (order: 0, 4096 bytes)
Dentry cache hash table entries: 16384 (order: 5, 131072 bytes)
Inode-cache hash table entries: 8192 (order: 4, 65536 bytes)
software IO TLB [mem 0x01c00000-0x05c00000] (64MB) mapped at [ffffffc001c00000-ffffffc005bfffff]
Memory: 21516K/131072K available (5301K kernel code, 355K rwdata, 2004K rodata, 2556K init, 205K bss, 93172K reserved, 16384K cma-reserved)
Virtual kernel memory layout:
    vmalloc : 0xffffff8000000000 - 0xffffffbdbfff0000   (   246 GB)
    vmemmap : 0xffffffbdc0000000 - 0xffffffbfc0000000   (     8 GB maximum)
              0xffffffbdc0000000 - 0xffffffbdc0200000   (     2 MB actual)
    fixed   : 0xffffffbffa7fd000 - 0xffffffbffac00000   (  4108 KB)
    PCI I/O : 0xffffffbffae00000 - 0xffffffbffbe00000   (    16 MB)
    modules : 0xffffffbffc000000 - 0xffffffc000000000   (    64 MB)
    memory  : 0xffffffc000000000 - 0xffffffc008000000   (   128 MB)
      .init : 0xffffffc0007a5000 - 0xffffffc000a24000   (  2556 KB)
      .text : 0xffffffc000080000 - 0xffffffc0007a4684   (  7314 KB)
      .data : 0xffffffc000a28000 - 0xffffffc000a80e00   (   356 KB)
SLUB: HWalign=64, Order=0-3, MinObjects=0, CPUs=2, Nodes=1
Preemptible hierarchical RCU implementation.
	Additional per-CPU info printed with stalls.
	Build-time adjustment of leaf fanout to 64.
	RCU restricting CPUs from NR_CPUS=64 to nr_cpu_ids=2.
RCU: Adjusting geometry for rcu_fanout_leaf=64, nr_cpu_ids=2
NR_IRQS:64 nr_irqs:64 0
Architected cp15 timer(s) running at 1.20MHz (virt).
clocksource: arch_sys_counter: mask: 0xffffffffffffff max_cycles: 0x11b661f8e, max_idle_ns: 1763180809113 ns
sched_clock: 56 bits at 1200kHz, resolution 833ns, wraps every 4398046510838ns
Console: colour dummy device 80x25
Calibrating delay loop (skipped), value calculated using timer frequency.. 2.40 BogoMIPS (lpj=12000)
pid_max: default: 32768 minimum: 301
Security Framework initialized
Mount-cache hash table entries: 512 (order: 0, 4096 bytes)
Mountpoint-cache hash table entries: 512 (order: 0, 4096 bytes)
Initializ[C3] SMC64 trap: 5E000000 at 0008BE50
[C3] 	X0: C4000003, X1: 00000001, X2: 00082700, X3: 00000000
[C3] psci request: 00000100 0000000035005B38 0000000036004000 -> 00000000
[C4] core boot: PCPU=0000000036004000 STACK=36004FF0
[C4] core boot is starting 'linux 2'....
[C4] 	Guest entry VADR=00082700 PADR=0E082700 Memory=97FFFFB8 97FFFFE7
[C4] Starting guest linux 2 on CPU 4 at 00082700
[C0] SMC64 trap: 5E000000 at 0008BE50
[C4] MIDR_EL1=410FD033 MPIDR_EL1=80000100 HCR_EL2=000000008008601B
[C0] 	X0: C4000003, X1: 00000001, X2: 00082700, X3: 00000000
[C3] SMC64 trap: 5E000000 at 0008BE50
[C0] psci request: 00000001 0000000035005B38 0000000036001000 -> 00000000
[C1] core boot: PCPU=0000000036001000 STACK=36001FF0
[C3] 	X0: C4000003, X1: 00000002, X2: 00082700, X3: 00000000
[C1] core boot is starting 'linux 1'....
[C3] psci request: 00000101 0000000035005B38 0000000036005000 -> 00000000
[C5] core boot: PCPU=0000000036005000 STACK=36005FF0
[C1] 	Guest entry VADR=00082700 PADR=06082700 Memory=97FFFFB8 97FFFFE7
[C5] core boot is starting 'linux 2'....
[C1] Starting guest linux 1 on CPU 1 at 00082700
[C5] 	Guest entry VADR=00082700 PADR=0E082700 Memory=97FFFFB8 97FFFFE7
[C1] MIDR_EL1=410FD033 MPIDR_EL1=80000001 HCR_EL2=000000008008601B
[C5] Starting guest linux 2 on CPU 5 at 00082700
[C5] MIDR_EL1=410FD033 MPIDR_EL1=80000101 HCR_EL2=000000008008601B
[C0] SMC64 trap: 5E000000 at 0008BE50
[C0] 	X0: C4000003, X1: 00000002, X2: 00082700, X3: 00000000
[C0] psci request: 00000002 0000000035005B38 0000000036002000 -> 00000000
[C2] core boot: PCPU=0000000036002000 STACK=36002FF0
[C2] core boot is starting 'linux 1'....
[C2] 	Guest entry VADR=00082700 PADR=06082700 Memory=97FFFFB8 97FFFFE7
[C2] Starting guest linux 1 on CPU 2 at 00082700
[C2] MIDR_EL1=410FD033 MPIDR_EL1=80000002 HCR_EL2=000000008008601B
ing cgroup subsys memory
Initializing cgroup subsys hugetlb
hw perfevents: enabled with arm/armv8-pmuv3 PMU driver, 7 counters available
EFI services will not be available.
[C6] SMC64 trap: 5E000000 at 0008BE50
[C6] 	X0: C4000003, X1: 00000001, X2: 00082700, X3: 00000000
[C6] psci request: 00000103 0000000035005B38 0000000036007000 -> 00000000
[C7] core boot: PCPU=0000000036007000 STACK=36007FF0
[C7] core boot is starting 'linux 3'....
[C7] 	Guest entry VADR=00082700 PADR=16082700 Memory=97FFFFB8 97FFFFE7
[C7] Starting guest linux 3 on CPU 7 at 00082700
[C7] MIDR_EL1=410FD033 MPIDR_EL1=80000103 HCR_EL2=000000008008601B
CPU1: Booted secondary processor
Detected VIPT I-cache on CPU1
Brought up 2 CPUs
SMP: Total of 2 processors activated.
CPU: All CPU(s) started at EL1
alternatives: patching kernel code
devtmpfs: initialized
DMI not present or invalid.
clocksource: jiffies: mask: 0xffffffff max_cycles: 0xffffffff, max_idle_ns: 19112604462750000 ns
pinctrl core: initialized pinctrl subsystem
NET: Registered protocol family 16
cpuidle: using governor ladder
cpuidle: using governor menu
vdso: 2 pages (1 code @ ffffffc000a2d000, 1 data @ ffffffc000a2c000)
hw-breakpoint: found 6 breakpoint and 4 watchpoint registers.
DMA: preallocated 256 KiB pool for atomic allocations
Serial: AMBA PL011 UART driver
c0004000.uart: ttyAMA0 at MMIO 0xc0004000 (irq = 12, base_baud = 0) is a PL011 rev2
console [ttyAMA0] enabled
console [ttyAMA0] enabled
bootconsole [uart0] disabled
bootconsole [uart0] disabled
vgaarb: loaded
SCSI subsystem initialized
libata version 3.00 loaded.
usbcore: registered new interface driver usbfs
usbcore: registered new interface driver hub
usbcore: registered new device driver usb
dmi: Firmware registration failed.
clocksource: Switched to clocksource arch_sys_counter
NET: Registered protocol family 2
TCP established hash table entries: 1024 (order: 1, 8192 bytes)
TCP bind hash table entries: 1024 (order: 2, 16384 bytes)
TCP: Hash tables configured (established 1024 bind 1024)
UDP hash table entries: 256 (order: 1, 8192 bytes)
UDP-Lite hash table entries: 256 (order: 1, 8192 bytes)
NET: Registered protocol family 1
RPC: Registered named UNIX socket transport module.
RPC: Registered udp transport module.
RPC: Registered tcp transport module.
RPC: Registered tcp NFSv4.1 backchannel transport module.
PCI: CLS 0 bytes, default 64
hw perfevents: Failed to parse /pmu/interrupt-affinity[0]
kvm [1]: HYP mode not available
futex hash table entries: 512 (order: 3, 32768 bytes)
audit: initializing netlink subsys (disabled)
audit: type=2000 audit(0.499:1): initialized
HugeTLB registered 2 MB page size, pre-allocated 0 pages
VFS: Disk quotas dquot_6.6.0
VFS: Dquot-cache hash table entries: 512 (order 0, 4096 bytes)
fuse init (API version 7.23)
9p: Installing v9fs 9p2000 file system support
Block layer SCSI generic (bsg) driver version 0.4 loaded (major 253)
io scheduler noop registered
io scheduler deadline registered
io scheduler cfq registered (default)
Serial: 8250/16550 driver, 4 ports, IRQ sharing disabled
Unable to detect cache hierarchy from DT for CPU 0
loop: module loaded
tun: Universal TUN/TAP device driver, 1.6
tun: (C) 1999-2004 Max Krasnyansky <maxk@qualcomm.com>
ehci_hcd: USB 2.0 'Enhanced' Host Controller (EHCI) Driver
ehci-pci: EHCI PCI platform driver
ehci-platform: EHCI generic platform driver
ohci_hcd: USB 1.1 'Open' Host Controller (OHCI) Driver
ohci-pci: OHCI PCI platform driver
ohci-platform: OHCI generic platform driver
usbcore: registered new interface driver usb-storage
mousedev: PS/2 mouse device common for all mice
sdhci: Secure Digital Host Controller Interface driver
sdhci: Copyright(c) Pierre Ossman
sdhci-pltfm: SDHCI platform and OF driver helper
usbcore: registered new interface driver usbhid
usbhid: USB HID core driver
SICS Thin Hypervisor: Inter Guest Communication driver
sth-igc: channel0 setup with "Enc" on the other end
NET: Registered protocol family 17
9pnet: Installing 9P2000 support
registered taskstats version 1
hctosys: unable to open rtc device (rtc0)
Freeing unused kernel memory: 2556K (ffffffc0007a5000 - ffffffc000a24000)
Freeing alternatives memory: 8K (ffffffc000a24000 - ffffffc000a26000)
Starting logging: OK
Initializing random number generator... random: dd urandom read with 1 bits of entropy available
done.
Starting network...

Welcome to Buildroot

!!! end_of_log
