Fri Oct 30 00:21:04 2015 CET
Files transferred
Logged in
Run remote flash script
Start fastboot flashing
Restart target in run mode
Searching for:'Booting STH ARMv8' ... keyword found
Searching for:'Created' ... keyword found
Searching for:'Linux version' ... keyword found
Searching for:'Welcome to Buildroot' ... keyword found
Log parse pass
